Date-Time	X-Environment	Y-Environment	Z-Environment	
0.000000	0.000000	0.000000
05:12:03 PM	0.0000000	0.0000000	0.0000000	
0.000000	0.000000	0.000000
05:12:03 PM	0.0000000	0.0000000	0.0000000	
0.000000	0.000000	0.000000
05:12:03 PM	0.0000000	0.0000000	0.0000000	
0.000000	0.000000	0.000000
05:12:03 PM	0.0000000	0.0000000	0.0000000	
0.000000	0.000000	0.000000
05:12:03 PM	0.0000000	0.0000000	0.0000000	
0.000000	0.000000	0.000000
05:12:03 PM	0.0000000	0.0000000	0.0000000	
0.000000	0.000000	0.000000
05:12:03 PM	0.0000000	0.0000000	0.0000000	
0.000000	0.000000	0.000000
05:12:03 PM	0.0000000	0.0000000	0.0000000	
0.000000	0.000000	0.000000
05:12:03 PM	0.0000000	0.0000000	0.0000000	
0.000000	0.000000	0.000000
05:12:04 PM	0.0000000	0.0000000	0.0000000	
0.000000	0.000000	0.000000
05:12:04 PM	0.0000000	0.0000000	0.0000000	
0.000000	0.000000	0.000000
05:12:04 PM	0.0000000	0.0000000	0.0000000	
0.000000	0.000000	0.000000
05:12:04 PM	0.0000000	0.0000000	0.0000000	
0.000000	0.000000	0.000000
05:12:04 PM	0.0000000	0.0000000	0.0000000	
0.000000	0.000000	0.000000
05:12:04 PM	0.0000000	0.0000000	0.0000000	
0.000000	0.000000	0.000000
05:12:04 PM	0.0000000	0.0000000	0.0000000	
0.000000	0.000000	0.000000
05:12:04 PM	0.0000000	0.0000000	0.0000000	
0.000000	0.000000	0.000000
05:12:04 PM	0.0000000	0.0000000	0.0000000	
0.000000	0.000000	0.000000
05:12:04 PM	0.0000000	0.0000000	0.0000000	
0.000000	0.000000	0.000000
05:12:04 PM	0.0000000	0.0000000	0.0000000	
0.000000	0.000000	0.000000
05:12:04 PM	0.0000000	0.0000000	0.0000000	
0.000000	0.000000	0.000000
05:12:04 PM	0.0000000	0.0000000	0.0000000	
0.000000	0.000000	0.000000
05:12:04 PM	0.0000000	0.0000000	0.0000000	
0.000000	0.000000	0.000000
05:12:04 PM	0.0000000	0.0000000	0.0000000	
0.000000	0.000000	0.000000
05:12:04 PM	0.0000000	0.0000000	0.0000000	
0.000000	0.000000	0.000000
05:12:04 PM	0.0000000	0.0000000	0.0000000	
0.000000	0.000000	0.000000
05:12:04 PM	0.0000000	0.0000000	0.0000000	
0.000000	0.000000	0.000000
05:12:04 PM	0.0000000	0.0000000	0.0000000	
0.000000	0.000000	0.000000
05:12:04 PM	0.0000000	0.0000000	0.0000000	
0.000000	0.000000	0.000000
05:12:04 PM	0.0000000	0.0000000	0.0000000	
0.000000	0.000000	0.000000
05:12:04 PM	0.0000000	0.0000000	0.0000000	
0.000000	0.000000	0.000000
05:12:04 PM	0.0000000	0.0000000	0.0000000	
0.000000	0.000000	0.000000
05:12:04 PM	0.0000000	0.0000000	0.0000000	
0.000000	0.000000	0.000000
05:12:04 PM	0.0000000	0.0000000	0.0000000	
0.000000	0.000000	0.000000
05:12:04 PM	0.0000000	0.0000000	0.0000000	
0.000000	0.000000	0.000000
05:12:04 PM	0.0000000	0.0000000	0.0000000	
0.000000	0.000000	0.000000
05:12:04 PM	0.0000000	0.0000000	0.0000000	
0.000000	0.000000	0.000000
05:12:04 PM	0.0000000	0.0000000	0.0000000	
0.000000	0.000000	0.000000
05:12:04 PM	0.0000000	0.0000000	0.0000000	
0.000000	0.000000	0.000000
05:12:04 PM	0.0000000	0.0000000	0.0000000	
0.000000	0.000000	0.000000
05:12:04 PM	0.0000000	0.0000000	0.0000000	
0.000000	0.000000	0.000000
05:12:04 PM	0.0000000	0.0000000	0.0000000	
0.000000	0.000000	0.000000
05:12:04 PM	0.0000000	0.0000000	0.0000000	
0.000000	0.000000	0.000000
05:12:04 PM	0.0000000	0.0000000	0.0000000	
0.000000	0.000000	0.000000
05:12:04 PM	0.0000000	0.0000000	0.0000000	
0.000000	0.000000	0.000000
05:12:04 PM	0.0000000	0.0000000	0.0000000	
0.000000	0.000000	0.000000
05:12:04 PM	0.0000000	0.0000000	0.0000000	
0.000000	0.000000	0.000000
05:12:04 PM	0.0000000	0.0000000	0.0000000	
0.000000	0.000000	0.000000
05:12:04 PM	0.0000000	0.0000000	0.0000000	
0.000000	0.000000	0.000000
05:12:04 PM	0.0000000	0.0000000	0.0000000	
0.000000	0.000000	0.000000
05:12:04 PM	0.0000000	0.0000000	0.0000000	
0.000000	0.000000	0.000000
05:12:04 PM	0.0000000	0.0000000	0.0000000	
0.000000	0.000000	0.000000
05:12:04 PM	0.0000000	0.0000000	0.0000000	
0.000000	0.000000	0.000000
05:12:04 PM	0.0000000	0.0000000	0.0000000	
0.000000	0.000000	0.000000
05:12:04 PM	0.0000000	0.0000000	0.0000000	
0.000000	0.000000	0.000000
05:12:04 PM	0.0000000	0.0000000	0.0000000	
0.000000	0.000000	0.000000
05:12:04 PM	0.0000000	0.0000000	0.0000000	
0.000000	0.000000	0.000000
05:12:04 PM	0.0000000	0.0000000	0.0000000	
0.000000	0.000000	0.000000
05:12:04 PM	0.0000000	0.0000000	0.0000000	
0.000000	0.000000	0.000000
05:12:04 PM	0.0000000	0.0000000	0.0000000	
0.000000	0.000000	0.000000
05:12:04 PM	0.0000000	0.0000000	0.0000000	
0.000000	0.000000	0.000000
05:12:04 PM	0.0000000	0.0000000	0.0000000	
0.000000	0.000000	0.000000
05:12:04 PM	0.0000000	0.0000000	0.0000000	
0.000000	0.000000	0.000000
05:12:04 PM	0.0000000	0.0000000	0.0000000	
0.000000	0.000000	0.000000
05:12:04 PM	0.0000000	0.0000000	0.0000000	
0.000000	0.000000	0.000000
05:12:04 PM	0.0000000	0.0000000	0.0000000	
0.000000	0.000000	0.000000
05:12:04 PM	0.0000000	0.0000000	0.0000000	
0.000000	0.000000	0.000000
05:12:04 PM	0.0000000	0.0000000	0.0000000	
0.000000	0.000000	0.000000
05:12:04 PM	0.0000000	0.0000000	0.0000000	
0.000000	0.000000	0.000000
05:12:04 PM	0.0000000	0.0000000	0.0000000	
0.000000	0.000000	0.000000
05:12:04 PM	0.0000000	0.0000000	0.0000000	
0.000000	0.000000	0.000000
05:12:04 PM	0.0000000	0.0000000	0.0000000	
0.000000	0.000000	0.000000
05:12:04 PM	0.0000000	0.0000000	0.0000000	
0.000000	0.000000	0.000000
05:12:04 PM	0.0000000	0.0000000	0.0000000	
0.000000	0.000000	0.000000
05:12:04 PM	0.0000000	0.0000000	0.0000000	
0.000000	0.000000	0.000000
05:12:04 PM	0.0000000	0.0000000	0.0000000	
0.000000	0.000000	0.000000
05:12:04 PM	0.0000000	0.0000000	0.0000000	
0.000000	0.000000	0.000000
05:12:04 PM	0.0000000	0.0000000	0.0000000	
0.000000	0.000000	0.000000
05:12:04 PM	0.0000000	0.0000000	0.0000000	
0.000000	0.000000	0.000000
05:12:04 PM	0.0000000	0.0000000	0.0000000	
0.000000	0.000000	0.000000
05:12:04 PM	0.0000000	0.0000000	0.0000000	
0.000000	0.000000	0.000000
05:12:04 PM	0.0000000	0.0000000	0.0000000	
0.000000	0.000000	0.000000
05:12:04 PM	0.0000000	0.0000000	0.0000000	
0.000000	0.000000	0.000000
05:12:04 PM	0.0000000	0.0000000	0.0000000	
0.000000	0.000000	0.000000
05:12:05 PM	0.0000000	0.0000000	0.0000000	
0.000000	0.000000	0.000000
05:12:05 PM	0.0000000	0.0000000	0.0000000	
0.000000	0.000000	0.000000
05:12:05 PM	0.0000000	0.0000000	0.0000000	
0.000000	0.000000	0.000000
05:12:05 PM	0.0000000	0.0000000	0.0000000	
0.000000	0.000000	0.000000
05:12:05 PM	0.0000000	0.0000000	0.0000000	
0.000000	0.000000	0.000000
05:12:05 PM	0.0000000	0.0000000	0.0000000	
0.000000	0.000000	0.000000
05:12:05 PM	0.0000000	0.0000000	0.0000000	
0.000000	0.000000	0.000000
05:12:05 PM	0.0000000	0.0000000	0.0000000	
0.000000	0.000000	0.000000
05:12:05 PM	0.0000000	0.0000000	0.0000000	
0.000000	0.000000	0.000000
05:12:05 PM	0.0000000	0.0000000	0.0000000	
0.000000	0.000000	0.000000
05:12:05 PM	0.0000000	0.0000000	0.0000000	
0.000000	0.000000	0.000000
05:12:05 PM	0.0000000	0.0000000	0.0000000	
0.000000	0.000000	0.000000
05:12:05 PM	0.0000000	0.0000000	0.0000000	
0.000000	0.000000	0.000000
05:12:05 PM	0.0000000	0.0000000	0.0000000	
0.000000	0.000000	0.000000
05:12:05 PM	0.0000000	0.0000000	0.0000000	
0.000000	0.000000	0.000000
05:12:05 PM	0.0000000	0.0000000	0.0000000	
0.000000	0.000000	0.000000
05:12:08 PM	0.0000000	0.0000000	0.0000000	
0.000000	0.000000	0.000000
05:12:08 PM	0.0000000	0.0000000	0.0000000	
0.000000	0.000000	0.000000
05:12:08 PM	0.0000000	0.0000000	0.0000000	
0.000000	0.000000	0.000000
05:12:08 PM	0.0000000	0.0000000	0.0000000	
0.000000	0.000000	0.000000
05:12:08 PM	0.0000000	0.0000000	0.0000000	
0.000000	0.000000	0.000000
05:12:08 PM	0.0000000	0.0000000	0.0000000	
0.000000	0.000000	0.000000
05:12:08 PM	0.0000000	0.0000000	0.0000000	
0.000000	0.000000	0.000000
05:12:08 PM	0.0000000	0.0000000	0.0000000	
0.000000	0.000000	0.000000
05:12:08 PM	0.0000000	0.0000000	0.0000000	
0.000000	0.000000	0.000000
05:12:08 PM	0.0000000	0.0000000	0.0000000	
0.000000	0.000000	0.000000
05:12:08 PM	0.0000000	0.0000000	0.0000000	
0.000000	0.000000	0.000000
05:12:09 PM	0.0000000	0.0000000	0.0000000	
0.000000	0.000000	0.000000
05:12:09 PM	0.0000000	0.0000000	0.0000000	
0.000000	0.000000	0.000000
05:12:09 PM	0.0000000	0.0000000	0.0000000	
0.000000	0.000000	0.000000
05:12:09 PM	0.0000000	0.0000000	0.0000000	
0.000000	0.000000	0.000000
05:12:09 PM	0.0000000	0.0000000	0.0000000	
0.000000	0.000000	0.000000
05:12:09 PM	0.0000000	0.0000000	0.0000000	
0.000000	0.000000	0.000000
05:12:09 PM	0.0000000	0.0000000	0.0000000	
0.000000	0.000000	0.000000
05:12:09 PM	0.0000000	0.0000000	0.0000000	
0.000000	0.000000	0.000000
05:12:09 PM	0.0000000	0.0000000	0.0000000	
0.000000	0.000000	0.000000
05:12:09 PM	0.0000000	0.0000000	0.0000000	
0.000000	0.000000	0.000000
05:12:09 PM	0.0000000	0.0000000	0.0000000	
0.000000	0.000000	0.000000
05:12:09 PM	0.0000000	0.0000000	0.0000000	
0.000000	0.000000	0.000000
05:12:09 PM	0.0000000	0.0000000	0.0000000	
0.000000	0.000000	0.000000
05:12:09 PM	0.0000000	0.0000000	0.0000000	
0.000000	0.000000	0.000000
05:12:09 PM	0.0000000	0.0000000	0.0000000	
0.000000	0.000000	0.000000
05:12:09 PM	0.0000000	0.0000000	0.0000000	
0.000000	0.000000	0.000000
05:12:09 PM	0.0000000	0.0000000	0.0000000	
0.000000	0.000000	0.000000
05:12:09 PM	0.0000000	0.0000000	0.0000000	
0.000000	0.000000	0.000000
05:12:09 PM	0.0000000	0.0000000	0.0000000	
0.000000	0.000000	0.000000
05:12:09 PM	0.0000000	0.0000000	0.0000000	
0.000000	0.000000	0.000000
05:12:09 PM	0.0000000	0.0000000	0.0000000	
0.000000	0.000000	0.000000
05:12:09 PM	0.0000000	0.0000000	0.0000000	
0.000000	0.000000	0.000000
05:12:09 PM	0.0000000	0.0000000	0.0000000	
0.000000	0.000000	0.000000
05:12:09 PM	0.0000000	0.0000000	0.0000000	
0.000000	0.000000	0.000000
05:12:09 PM	0.0000000	0.0000000	0.0000000	
0.000000	0.000000	0.000000
05:12:09 PM	0.0000000	0.0000000	0.0000000	
0.000000	0.000000	0.000000
05:12:09 PM	0.0000000	0.0000000	0.0000000	
0.000000	0.000000	0.000000
05:12:09 PM	0.0000000	0.0000000	0.0000000	
0.000000	0.000000	0.000000
05:12:09 PM	0.0000000	0.0000000	0.0000000	
0.000000	0.000000	0.000000
05:12:09 PM	0.0000000	0.0000000	0.0000000	
0.000000	0.000000	0.000000
05:12:09 PM	0.0000000	0.0000000	0.0000000	
0.000000	0.000000	0.000000
05:12:09 PM	0.0000000	0.0000000	0.0000000	
0.000000	0.000000	0.000000
05:12:09 PM	0.0000000	0.0000000	0.0000000	
0.000000	0.000000	0.000000
05:12:09 PM	0.0000000	0.0000000	0.0000000	
0.000000	0.000000	0.000000
05:12:09 PM	0.0000000	0.0000000	0.0000000	
0.000000	0.000000	0.000000
05:12:09 PM	0.0000000	0.0000000	0.0000000	
0.000000	0.000000	0.000000
05:12:09 PM	0.0000000	0.0000000	0.0000000	
0.000000	0.000000	0.000000
05:12:09 PM	0.0000000	0.0000000	0.0000000	
0.000000	0.000000	0.000000
05:12:09 PM	0.0000000	0.0000000	0.0000000	
0.000000	0.000000	0.000000
05:12:09 PM	0.0000000	0.0000000	0.0000000	
0.000000	0.000000	0.000000
05:12:09 PM	0.0000000	0.0000000	0.0000000	
0.000000	0.000000	0.000000
05:12:09 PM	0.0000000	0.0000000	0.0000000	
0.000000	0.000000	0.000000
05:12:09 PM	0.0000000	0.0000000	0.0000000	
0.000000	0.000000	0.000000
05:12:09 PM	0.0000000	0.0000000	0.0000000	
0.000000	0.000000	0.000000
05:12:09 PM	0.0000000	0.0000000	0.0000000	
0.000000	0.000000	0.000000
05:12:09 PM	0.0000000	0.0000000	0.0000000	
0.000000	0.000000	0.000000
05:12:09 PM	0.0000000	0.0000000	0.0000000	
0.000000	0.000000	0.000000
05:12:09 PM	0.0000000	0.0000000	0.0000000	
0.000000	0.000000	0.000000
05:12:09 PM	0.0000000	0.0000000	0.0000000	
0.000000	0.000000	0.000000
05:12:09 PM	0.0000000	0.0000000	0.0000000	
0.000000	0.000000	0.000000
05:12:09 PM	0.0000000	0.0000000	0.0000000	
0.000000	0.000000	0.000000
05:12:09 PM	0.0000000	0.0000000	0.0000000	
0.000000	0.000000	0.000000
05:12:09 PM	0.0000000	0.0000000	0.0000000	
0.000000	0.000000	0.000000
05:12:09 PM	0.0000000	0.0000000	0.0000000	
0.000000	0.000000	0.000000
05:12:09 PM	0.0000000	0.0000000	0.0000000	
0.000000	0.000000	0.000000
05:12:09 PM	0.0000000	0.0000000	0.0000000	
0.000000	0.000000	0.000000
05:12:09 PM	0.0000000	0.0000000	0.0000000	
0.000000	0.000000	0.000000
05:12:09 PM	0.0000000	0.0000000	0.0000000	
0.000000	0.000000	0.000000
05:12:09 PM	0.0000000	0.0000000	0.0000000	
0.000000	0.000000	0.000000
05:12:09 PM	0.0000000	0.0000000	0.0000000	
0.000000	0.000000	0.000000
05:12:09 PM	0.0000000	0.0000000	0.0000000	
0.000000	0.000000	0.000000
05:12:10 PM	0.0000000	0.0000000	0.0000000	
0.000000	0.000000	0.000000
05:12:10 PM	0.0000000	0.0000000	0.0000000	
0.000000	0.000000	0.000000
05:12:10 PM	0.0000000	0.0000000	0.0000000	
0.000000	0.000000	0.000000
05:12:10 PM	0.0000000	0.0000000	0.0000000	
0.000000	0.000000	0.000000
05:12:10 PM	0.0000000	0.0000000	0.0000000	
0.000000	0.000000	0.000000
05:12:10 PM	0.0000000	0.0000000	0.0000000	
0.000000	0.000000	0.000000
05:12:10 PM	0.0000000	0.0000000	0.0000000	
0.000000	0.000000	0.000000
05:12:10 PM	0.0000000	0.0000000	0.0000000	
0.000000	0.000000	0.000000
05:12:10 PM	0.0000000	0.0000000	0.0000000	
0.000000	0.000000	0.000000
05:12:10 PM	0.0000000	0.0000000	0.0000000	
0.000000	0.000000	0.000000
05:12:10 PM	0.0000000	0.0000000	0.0000000	
0.000000	0.000000	0.000000
05:12:10 PM	0.0000000	0.0000000	0.0000000	
0.000000	0.000000	0.000000
05:12:10 PM	0.0000000	0.0000000	0.0000000	
0.000000	0.000000	0.000000
05:12:10 PM	0.0000000	0.0000000	0.0000000	
0.000000	0.000000	0.000000
05:12:10 PM	0.0000000	0.0000000	0.0000000	
0.000000	0.000000	0.000000
05:12:10 PM	0.0000000	0.0000000	0.0000000	
0.000000	0.000000	0.000000
05:12:10 PM	0.0000000	0.0000000	0.0000000	
0.000000	0.000000	0.000000
05:12:10 PM	0.0000000	0.0000000	0.0000000	
0.000000	0.000000	0.000000
05:12:10 PM	0.0000000	0.0000000	0.0000000	
0.000000	0.000000	0.000000
05:12:10 PM	0.0000000	0.0000000	0.0000000	
0.000000	0.000000	0.000000
05:12:10 PM	0.0000000	0.0000000	0.0000000	
0.000000	0.000000	0.000000
05:12:10 PM	0.0000000	0.0000000	0.0000000	
0.000000	0.000000	0.000000
05:12:10 PM	0.0000000	0.0000000	0.0000000	
0.000000	0.000000	0.000000
05:12:10 PM	0.0000000	0.0000000	0.0000000	
0.000000	0.000000	0.000000
05:12:10 PM	0.0000000	0.0000000	0.0000000	
0.000000	0.000000	0.000000
05:12:10 PM	0.0000000	0.0000000	0.0000000	
0.000000	0.000000	0.000000
05:12:10 PM	0.0000000	0.0000000	0.0000000	
0.000000	0.000000	0.000000
05:12:10 PM	0.0000000	0.0000000	0.0000000	
0.000000	0.000000	0.000000
05:12:12 PM	0.0000000	0.0000000	0.0000000	
0.000000	0.000000	0.000000
05:12:12 PM	0.0000000	0.0000000	0.0000000	
0.000000	0.000000	0.000000
05:12:12 PM	0.0000000	0.0000000	0.0000000	
0.000000	0.000000	0.000000
05:12:12 PM	0.0000000	0.0000000	0.0000000	
0.000000	0.000000	0.000000
05:12:12 PM	0.0000000	0.0000000	0.0000000	
0.000000	0.000000	0.000000
05:12:12 PM	0.0000000	0.0000000	0.0000000	
0.000000	0.000000	0.000000
05:12:12 PM	0.0000000	0.0000000	0.0000000	
0.000000	0.000000	0.000000
05:12:12 PM	0.0000000	0.0000000	0.0000000	
0.000000	0.000000	0.000000
05:12:12 PM	0.0000000	0.0000000	0.0000000	
0.000000	0.000000	0.000000
05:12:12 PM	0.0000000	0.0000000	0.0000000	
0.000000	0.000000	0.000000
05:12:12 PM	0.0000000	0.0000000	0.0000000	
0.000000	0.000000	0.000000
05:12:12 PM	0.0000000	0.0000000	0.0000000	
0.000000	0.000000	0.000000
05:12:12 PM	0.0000000	0.0000000	0.0000000	
0.000000	0.000000	0.000000
05:12:12 PM	0.0000000	0.0000000	0.0000000	
0.000000	0.000000	0.000000
05:12:12 PM	0.0000000	0.0000000	0.0000000	
0.000000	0.000000	0.000000
05:12:12 PM	0.0000000	0.0000000	0.0000000	
0.000000	0.000000	0.000000
05:12:12 PM	0.0000000	0.0000000	0.0000000	
0.000000	0.000000	0.000000
05:12:12 PM	0.0000000	0.0000000	0.0000000	
0.000000	0.000000	0.000000
05:12:12 PM	0.0000000	0.0000000	0.0000000	
0.000000	0.000000	0.000000
05:12:12 PM	0.0000000	0.0000000	0.0000000	
0.000000	0.000000	0.000000
05:12:13 PM	0.0000000	0.0000000	0.0000000	
0.000000	0.000000	0.000000
05:12:13 PM	0.0000000	0.0000000	0.0000000	
0.000000	0.000000	0.000000
05:12:13 PM	0.0000000	0.0000000	0.0000000	
0.000000	0.000000	0.000000
05:12:13 PM	0.0000000	0.0000000	0.0000000	
0.000000	0.000000	0.000000
05:12:13 PM	0.0000000	0.0000000	0.0000000	
0.000000	0.000000	0.000000
05:12:13 PM	0.0000000	0.0000000	0.0000000	
0.000000	0.000000	0.000000
05:12:13 PM	0.0000000	0.0000000	0.0000000	
0.000000	0.000000	0.000000
05:12:13 PM	0.0000000	0.0000000	0.0000000	
0.000000	0.000000	0.000000
05:12:13 PM	0.0000000	0.0000000	0.0000000	
0.000000	0.000000	0.000000
05:12:13 PM	0.0000000	0.0000000	0.0000000	
0.000000	0.000000	0.000000
05:12:13 PM	0.0000000	0.0000000	0.0000000	
0.000000	0.000000	0.000000
05:12:13 PM	0.0000000	0.0000000	0.0000000	
0.000000	0.000000	0.000000
05:12:13 PM	0.0000000	0.0000000	0.0000000	
0.000000	0.000000	0.000000
05:12:13 PM	0.0000000	0.0000000	0.0000000	
0.000000	0.000000	0.000000
05:12:13 PM	0.0000000	0.0000000	0.0000000	
0.000000	0.000000	0.000000
05:12:13 PM	0.0000000	0.0000000	0.0000000	
0.000000	0.000000	0.000000
05:12:13 PM	0.0000000	0.0000000	0.0000000	
0.000000	0.000000	0.000000
05:12:13 PM	0.0000000	0.0000000	0.0000000	
0.000000	0.000000	0.000000
05:12:13 PM	0.0000000	0.0000000	0.0000000	
0.000000	0.000000	0.000000
05:12:13 PM	0.0000000	0.0000000	0.0000000	
0.000000	0.000000	0.000000
05:12:13 PM	0.0000000	0.0000000	0.0000000	
0.000000	0.000000	0.000000
05:12:13 PM	0.0000000	0.0000000	0.0000000	
0.000000	0.000000	0.000000
05:12:13 PM	0.0000000	0.0000000	0.0000000	
0.000000	0.000000	0.000000
05:12:13 PM	0.0000000	0.0000000	0.0000000	
0.000000	0.000000	0.000000
05:12:13 PM	0.0000000	0.0000000	0.0000000	
0.000000	0.000000	0.000000
05:12:13 PM	0.0000000	0.0000000	0.0000000	
0.000000	0.000000	0.000000
05:12:13 PM	0.0000000	0.0000000	0.0000000	
0.000000	0.000000	0.000000
05:12:13 PM	0.0000000	0.0000000	0.0000000	
0.000000	0.000000	0.000000
05:12:13 PM	0.0000000	0.0000000	0.0000000	
0.000000	0.000000	0.000000
05:12:13 PM	0.0000000	0.0000000	0.0000000	
0.000000	0.000000	0.000000
05:12:13 PM	0.0000000	0.0000000	0.0000000	
0.000000	0.000000	0.000000
05:12:13 PM	0.0000000	0.0000000	0.0000000	
0.000000	0.000000	0.000000
05:12:13 PM	0.0000000	0.0000000	0.0000000	
0.000000	0.000000	0.000000
05:12:13 PM	0.0000000	0.0000000	0.0000000	
0.000000	0.000000	0.000000
05:12:13 PM	0.0000000	0.0000000	0.0000000	
0.000000	0.000000	0.000000
05:12:13 PM	0.0000000	0.0000000	0.0000000	
0.000000	0.000000	0.000000
05:12:13 PM	0.0000000	0.0000000	0.0000000	
0.000000	0.000000	0.000000
05:12:13 PM	0.0000000	0.0000000	0.0000000	
0.000000	0.000000	0.000000
05:12:13 PM	0.0000000	0.0000000	0.0000000	
0.000000	0.000000	0.000000
05:12:13 PM	0.0000000	0.0000000	0.0000000	
0.000000	0.000000	0.000000
05:12:13 PM	0.0000000	0.0000000	0.0000000	
0.000000	0.000000	0.000000
05:12:13 PM	0.0000000	0.0000000	0.0000000	
0.000000	0.000000	0.000000
05:12:13 PM	0.0000000	0.0000000	0.0000000	
0.000000	0.000000	0.000000
05:12:13 PM	0.0000000	0.0000000	0.0000000	
0.000000	0.000000	0.000000
05:12:13 PM	0.0000000	0.0000000	0.0000000	
0.000000	0.000000	0.000000
05:12:13 PM	0.0000000	0.0000000	0.0000000	
0.000000	0.000000	0.000000
05:12:13 PM	0.0000000	0.0000000	0.0000000	
0.000000	0.000000	0.000000
05:12:14 PM	0.0000000	0.0000000	0.0000000	
0.000000	0.000000	0.000000
05:12:14 PM	0.0000000	0.0000000	0.0000000	
0.000000	0.000000	0.000000
05:12:14 PM	0.0000000	0.0000000	0.0000000	
0.000000	0.000000	0.000000
05:12:14 PM	0.0000000	0.0000000	0.0000000	
0.000000	0.000000	0.000000
05:12:14 PM	0.0000000	0.0000000	0.0000000	
0.000000	0.000000	0.000000
05:12:14 PM	0.0000000	0.0000000	0.0000000	
0.000000	0.000000	0.000000
05:12:14 PM	0.0000000	0.0000000	0.0000000	
0.000000	0.000000	0.000000
05:12:14 PM	0.0000000	0.0000000	0.0000000	
0.000000	0.000000	0.000000
05:12:14 PM	0.0000000	0.0000000	0.0000000	
0.000000	0.000000	0.000000
05:12:14 PM	0.0000000	0.0000000	0.0000000	
0.000000	0.000000	0.000000
05:12:14 PM	0.0000000	0.0000000	0.0000000	
0.000000	0.000000	0.000000
05:12:14 PM	0.0000000	0.0000000	0.0000000	
0.000000	0.000000	0.000000
05:12:14 PM	0.0000000	0.0000000	0.0000000	
0.000000	0.000000	0.000000
05:12:14 PM	0.0000000	0.0000000	0.0000000	
0.000000	0.000000	0.000000
05:12:14 PM	0.0000000	0.0000000	0.0000000	
0.000000	0.000000	0.000000
05:12:14 PM	0.0000000	0.0000000	0.0000000	
0.000000	0.000000	0.000000
05:12:14 PM	0.0000000	0.0000000	0.0000000	
0.000000	0.000000	0.000000
05:12:14 PM	0.0000000	0.0000000	0.0000000	
0.000000	0.000000	0.000000
05:12:14 PM	0.0000000	0.0000000	0.0000000	
0.000000	0.000000	0.000000
05:12:14 PM	0.0000000	0.0000000	0.0000000	
0.000000	0.000000	0.000000
05:12:14 PM	0.0000000	0.0000000	0.0000000	
0.000000	0.000000	0.000000
05:12:14 PM	0.0000000	0.0000000	0.0000000	
0.000000	0.000000	0.000000
05:12:14 PM	0.0000000	0.0000000	0.0000000	
0.000000	0.000000	0.000000
05:12:14 PM	0.0000000	0.0000000	0.0000000	
0.000000	0.000000	0.000000
05:12:14 PM	0.0000000	0.0000000	0.0000000	
0.000000	0.000000	0.000000
05:12:14 PM	0.0000000	0.0000000	0.0000000	
0.000000	0.000000	0.000000
05:12:14 PM	0.0000000	0.0000000	0.0000000	
0.000000	0.000000	0.000000
05:12:14 PM	0.0000000	0.0000000	0.0000000	
0.000000	0.000000	0.000000
05:12:14 PM	0.0000000	0.0000000	0.0000000	
0.000000	0.000000	0.000000
05:12:14 PM	0.0000000	0.0000000	0.0000000	
0.000000	0.000000	0.000000
05:12:14 PM	0.0000000	0.0000000	0.0000000	
0.000000	0.000000	0.000000
05:12:14 PM	0.0000000	0.0000000	0.0000000	
0.000000	0.000000	0.000000
05:12:14 PM	0.0000000	0.0000000	0.0000000	
0.000000	0.000000	0.000000
05:12:17 PM	0.0000000	0.0000000	0.0000000	
0.000000	0.000000	0.000000
05:12:17 PM	0.0000000	0.0000000	0.0000000	
0.000000	0.000000	0.000000
05:12:17 PM	0.0000000	0.0000000	0.0000000	
0.000000	0.000000	0.000000
05:12:17 PM	0.0000000	0.0000000	0.0000000	
0.000000	0.000000	0.000000
05:12:17 PM	0.0000000	0.0000000	0.0000000	
0.000000	0.000000	0.000000
05:12:17 PM	0.0000000	0.0000000	0.0000000	
0.000000	0.000000	0.000000
05:12:17 PM	0.0000000	0.0000000	0.0000000	
0.000000	0.000000	0.000000
05:12:17 PM	0.0000000	0.0000000	0.0000000	
0.000000	0.000000	0.000000
05:12:17 PM	0.0000000	0.0000000	0.0000000	
0.000000	0.000000	0.000000
05:12:17 PM	0.0000000	0.0000000	0.0000000	
0.000000	0.000000	0.000000
05:12:17 PM	0.0000000	0.0000000	0.0000000	
0.000000	0.000000	0.000000
05:12:17 PM	0.0000000	0.0000000	0.0000000	
0.000000	0.000000	0.000000
05:12:17 PM	0.0000000	0.0000000	0.0000000	
0.000000	0.000000	0.000000
05:12:17 PM	0.0000000	0.0000000	0.0000000	
0.000000	0.000000	0.000000
05:12:17 PM	0.0000000	0.0000000	0.0000000	
0.000000	0.000000	0.000000
05:12:17 PM	0.0000000	0.0000000	0.0000000	
0.000000	0.000000	0.000000
05:12:17 PM	0.0000000	0.0000000	0.0000000	
0.000000	0.000000	0.000000
05:12:17 PM	0.0000000	0.0000000	0.0000000	
0.000000	0.000000	0.000000
05:12:17 PM	0.0000000	0.0000000	0.0000000	
0.000000	0.000000	0.000000
05:12:17 PM	0.0000000	0.0000000	0.0000000	
0.000000	0.000000	0.000000
05:12:17 PM	0.0000000	0.0000000	0.0000000	
0.000000	0.000000	0.000000
05:12:17 PM	0.0000000	0.0000000	0.0000000	
0.000000	0.000000	0.000000
05:12:17 PM	0.0000000	0.0000000	0.0000000	
0.000000	0.000000	0.000000
05:12:17 PM	0.0000000	0.0000000	0.0000000	
0.000000	0.000000	0.000000
05:12:17 PM	0.0000000	0.0000000	0.0000000	
0.000000	0.000000	0.000000
05:12:17 PM	0.0000000	0.0000000	0.0000000	
0.000000	0.000000	0.000000
05:12:17 PM	0.0000000	0.0000000	0.0000000	
0.000000	0.000000	0.000000
05:12:17 PM	0.0000000	0.0000000	0.0000000	
0.000000	0.000000	0.000000
05:12:17 PM	0.0000000	0.0000000	0.0000000	
0.000000	0.000000	0.000000
05:12:17 PM	0.0000000	0.0000000	0.0000000	
0.000000	0.000000	0.000000
05:12:17 PM	0.0000000	0.0000000	0.0000000	
0.000000	0.000000	0.000000
05:12:17 PM	0.0000000	0.0000000	0.0000000	
0.000000	0.000000	0.000000
05:12:17 PM	0.0000000	0.0000000	0.0000000	
0.000000	0.000000	0.000000
05:12:17 PM	0.0000000	0.0000000	0.0000000	
0.000000	0.000000	0.000000
05:12:17 PM	0.0000000	0.0000000	0.0000000	
0.000000	0.000000	0.000000
05:12:17 PM	0.0000000	0.0000000	0.0000000	
0.000000	0.000000	0.000000
05:12:17 PM	0.0000000	0.0000000	0.0000000	
0.000000	0.000000	0.000000
05:12:17 PM	0.0000000	0.0000000	0.0000000	
0.000000	0.000000	0.000000
05:12:17 PM	0.0000000	0.0000000	0.0000000	
0.000000	0.000000	0.000000
05:12:17 PM	0.0000000	0.0000000	0.0000000	
0.000000	0.000000	0.000000
05:12:17 PM	0.0000000	0.0000000	0.0000000	
0.000000	0.000000	0.000000
05:12:17 PM	0.0000000	0.0000000	0.0000000	
0.000000	0.000000	0.000000
05:12:18 PM	0.0000000	0.0000000	0.0000000	
0.000000	0.000000	0.000000
05:12:18 PM	0.0000000	0.0000000	0.0000000	
0.000000	0.000000	0.000000
05:12:18 PM	0.0000000	0.0000000	0.0000000	
0.000000	0.000000	0.000000
05:12:18 PM	0.0000000	0.0000000	0.0000000	
0.000000	0.000000	0.000000
05:12:18 PM	0.0000000	0.0000000	0.0000000	
0.000000	0.000000	0.000000
05:12:18 PM	0.0000000	0.0000000	0.0000000	
0.000000	0.000000	0.000000
05:12:18 PM	0.0000000	0.0000000	0.0000000	
0.000000	0.000000	0.000000
05:12:18 PM	0.0000000	0.0000000	0.0000000	
0.000000	0.000000	0.000000
05:12:18 PM	0.0000000	0.0000000	0.0000000	
0.000000	0.000000	0.000000
05:12:18 PM	0.0000000	0.0000000	0.0000000	
0.000000	0.000000	0.000000
05:12:18 PM	0.0000000	0.0000000	0.0000000	
0.000000	0.000000	0.000000
05:12:18 PM	0.0000000	0.0000000	0.0000000	
0.000000	0.000000	0.000000
05:12:18 PM	0.0000000	0.0000000	0.0000000	
0.000000	0.000000	0.000000
05:12:18 PM	0.0000000	0.0000000	0.0000000	
0.000000	0.000000	0.000000
05:12:18 PM	0.0000000	0.0000000	0.0000000	
0.000000	0.000000	0.000000
05:12:18 PM	0.0000000	0.0000000	0.0000000	
0.000000	0.000000	0.000000
05:12:18 PM	0.0000000	0.0000000	0.0000000	
0.000000	0.000000	0.000000
05:12:18 PM	0.0000000	0.0000000	0.0000000	
0.000000	0.000000	0.000000
05:12:18 PM	0.0000000	0.0000000	0.0000000	
0.000000	0.000000	0.000000
05:12:18 PM	0.0000000	0.0000000	0.0000000	
0.000000	0.000000	0.000000
05:12:18 PM	0.0000000	0.0000000	0.0000000	
0.000000	0.000000	0.000000
05:12:18 PM	0.0000000	0.0000000	0.0000000	
0.000000	0.000000	0.000000
05:12:18 PM	0.0000000	0.0000000	0.0000000	
0.000000	0.000000	0.000000
05:12:18 PM	0.0000000	0.0000000	0.0000000	
0.000000	0.000000	0.000000
05:12:18 PM	0.0000000	0.0000000	0.0000000	
0.000000	0.000000	0.000000
05:12:18 PM	0.0000000	0.0000000	0.0000000	
0.000000	0.000000	0.000000
05:12:18 PM	0.0000000	0.0000000	0.0000000	
0.000000	0.000000	0.000000
05:12:18 PM	0.0000000	0.0000000	0.0000000	
0.000000	0.000000	0.000000
05:12:18 PM	0.0000000	0.0000000	0.0000000	
0.000000	0.000000	0.000000
05:12:18 PM	0.0000000	0.0000000	0.0000000	
0.000000	0.000000	0.000000
05:12:18 PM	0.0000000	0.0000000	0.0000000	
0.000000	0.000000	0.000000
05:12:18 PM	0.0000000	0.0000000	0.0000000	
0.000000	0.000000	0.000000
05:12:18 PM	0.0000000	0.0000000	0.0000000	
0.000000	0.000000	0.000000
05:12:18 PM	0.0000000	0.0000000	0.0000000	
0.000000	0.000000	0.000000
05:12:18 PM	0.0000000	0.0000000	0.0000000	
0.000000	0.000000	0.000000
05:12:18 PM	0.0000000	0.0000000	0.0000000	
0.000000	0.000000	0.000000
05:12:18 PM	0.0000000	0.0000000	0.0000000	
0.000000	0.000000	0.000000
05:12:19 PM	0.0000000	0.0000000	0.0000000	
0.000000	0.000000	0.000000
05:12:19 PM	0.0000000	0.0000000	0.0000000	
0.000000	0.000000	0.000000
05:12:19 PM	0.0000000	0.0000000	0.0000000	
0.000000	0.000000	0.000000
05:12:19 PM	0.0000000	0.0000000	0.0000000	
0.000000	0.000000	0.000000
05:12:19 PM	0.0000000	0.0000000	0.0000000	
0.000000	0.000000	0.000000
05:12:19 PM	0.0000000	0.0000000	0.0000000	
0.000000	0.000000	0.000000
05:12:19 PM	0.0000000	0.0000000	0.0000000	
0.000000	0.000000	0.000000
05:12:19 PM	0.0000000	0.0000000	0.0000000	
0.000000	0.000000	0.000000
05:12:19 PM	0.0000000	0.0000000	0.0000000	
0.000000	0.000000	0.000000
05:12:19 PM	0.0000000	0.0000000	0.0000000	
0.000000	0.000000	0.000000
05:12:19 PM	0.0000000	0.0000000	0.0000000	
0.000000	0.000000	0.000000
05:12:19 PM	0.0000000	0.0000000	0.0000000	
0.000000	0.000000	0.000000
05:12:19 PM	0.0000000	0.0000000	0.0000000	
0.000000	0.000000	0.000000
05:12:19 PM	0.0000000	0.0000000	0.0000000	
0.000000	0.000000	0.000000
05:12:19 PM	0.0000000	0.0000000	0.0000000	
0.000000	0.000000	0.000000
05:12:19 PM	0.0000000	0.0000000	0.0000000	
0.000000	0.000000	0.000000
05:12:19 PM	0.0000000	0.0000000	0.0000000	
0.000000	0.000000	0.000000
05:12:19 PM	0.0000000	0.0000000	0.0000000	
0.000000	0.000000	0.000000
05:12:19 PM	0.0000000	0.0000000	0.0000000	
0.000000	0.000000	0.000000
05:12:19 PM	0.0000000	0.0000000	0.0000000	
0.000000	0.000000	0.000000
05:12:19 PM	0.0000000	0.0000000	0.0000000	
0.000000	0.000000	0.000000
05:12:21 PM	0.0000000	0.0000000	0.0000000	
0.000000	0.000000	0.000000
05:12:21 PM	0.0000000	0.0000000	0.0000000	
0.000000	0.000000	0.000000
05:12:21 PM	0.0000000	0.0000000	0.0000000	
0.000000	0.000000	0.000000
05:12:21 PM	0.0000000	0.0000000	0.0000000	
0.000000	0.000000	0.000000
05:12:21 PM	0.0000000	0.0000000	0.0000000	
0.000000	0.000000	0.000000
05:12:21 PM	0.0000000	0.0000000	0.0000000	
0.000000	0.000000	0.000000
05:12:21 PM	0.0000000	0.0000000	0.0000000	
0.000000	0.000000	0.000000
05:12:21 PM	0.0000000	0.0000000	0.0000000	
0.000000	0.000000	0.000000
05:12:21 PM	0.0000000	0.0000000	0.0000000	
0.000000	0.000000	0.000000
05:12:21 PM	0.0000000	0.0000000	0.0000000	
0.000000	0.000000	0.000000
05:12:21 PM	0.0000000	0.0000000	0.0000000	
0.000000	0.000000	0.000000
05:12:21 PM	0.0000000	0.0000000	0.0000000	
0.000000	0.000000	0.000000
05:12:21 PM	0.0000000	0.0000000	0.0000000	
0.000000	0.000000	0.000000
05:12:21 PM	0.0000000	0.0000000	0.0000000	
0.000000	0.000000	0.000000
05:12:21 PM	0.0000000	0.0000000	0.0000000	
0.000000	0.000000	0.000000
05:12:21 PM	0.0000000	0.0000000	0.0000000	
0.000000	0.000000	0.000000
05:12:21 PM	0.0000000	0.0000000	0.0000000	
0.000000	0.000000	0.000000
05:12:21 PM	0.0000000	0.0000000	0.0000000	
0.000000	0.000000	0.000000
05:12:21 PM	0.0000000	0.0000000	0.0000000	
0.000000	0.000000	0.000000
05:12:21 PM	0.0000000	0.0000000	0.0000000	
0.000000	0.000000	0.000000
05:12:21 PM	0.0000000	0.0000000	0.0000000	
0.000000	0.000000	0.000000
05:12:21 PM	0.0000000	0.0000000	0.0000000	
0.000000	0.000000	0.000000
05:12:21 PM	0.0000000	0.0000000	0.0000000	
0.000000	0.000000	0.000000
05:12:21 PM	0.0000000	0.0000000	0.0000000	
0.000000	0.000000	0.000000
05:12:21 PM	0.0000000	0.0000000	0.0000000	
0.000000	0.000000	0.000000
05:12:21 PM	0.0000000	0.0000000	0.0000000	
0.000000	0.000000	0.000000
05:12:21 PM	0.0000000	0.0000000	0.0000000	
0.000000	0.000000	0.000000
05:12:21 PM	0.0000000	0.0000000	0.0000000	
0.000000	0.000000	0.000000
05:12:21 PM	0.0000000	0.0000000	0.0000000	
0.000000	0.000000	0.000000
05:12:21 PM	0.0000000	0.0000000	0.0000000	
0.000000	0.000000	0.000000
05:12:21 PM	0.0000000	0.0000000	0.0000000	
0.000000	0.000000	0.000000
05:12:21 PM	0.0000000	0.0000000	0.0000000	
0.000000	0.000000	0.000000
05:12:21 PM	0.0000000	0.0000000	0.0000000	
0.000000	0.000000	0.000000
05:12:21 PM	0.0000000	0.0000000	0.0000000	
0.000000	0.000000	0.000000
05:12:21 PM	0.0000000	0.0000000	0.0000000	
0.000000	0.000000	0.000000
05:12:21 PM	0.0000000	0.0000000	0.0000000	
0.000000	0.000000	0.000000
05:12:21 PM	0.0000000	0.0000000	0.0000000	
0.000000	0.000000	0.000000
05:12:21 PM	0.0000000	0.0000000	0.0000000	
0.000000	0.000000	0.000000
05:12:21 PM	0.0000000	0.0000000	0.0000000	
0.000000	0.000000	0.000000
05:12:22 PM	0.0000000	0.0000000	0.0000000	
0.000000	0.000000	0.000000
05:12:22 PM	0.0000000	0.0000000	0.0000000	
0.000000	0.000000	0.000000
05:12:22 PM	0.0000000	0.0000000	0.0000000	
0.000000	0.000000	0.000000
05:12:22 PM	0.0000000	0.0000000	0.0000000	
0.000000	0.000000	0.000000
05:12:22 PM	0.0000000	0.0000000	0.0000000	
0.000000	0.000000	0.000000
05:12:22 PM	0.0000000	0.0000000	0.0000000	
0.000000	0.000000	0.000000
05:12:22 PM	0.0000000	0.0000000	0.0000000	
0.000000	0.000000	0.000000
05:12:22 PM	0.0000000	0.0000000	0.0000000	
0.000000	0.000000	0.000000
05:12:22 PM	0.0000000	0.0000000	0.0000000	
0.000000	0.000000	0.000000
05:12:22 PM	0.0000000	0.0000000	0.0000000	
0.000000	0.000000	0.000000
05:12:22 PM	0.0000000	0.0000000	0.0000000	
0.000000	0.000000	0.000000
05:12:22 PM	0.0000000	0.0000000	0.0000000	
0.000000	0.000000	0.000000
05:12:22 PM	0.0000000	0.0000000	0.0000000	
0.000000	0.000000	0.000000
05:12:22 PM	0.0000000	0.0000000	0.0000000	
0.000000	0.000000	0.000000
05:12:22 PM	0.0000000	0.0000000	0.0000000	
0.000000	0.000000	0.000000
05:12:22 PM	0.0000000	0.0000000	0.0000000	
0.000000	0.000000	0.000000
05:12:22 PM	0.0000000	0.0000000	0.0000000	
0.000000	0.000000	0.000000
05:12:22 PM	0.0000000	0.0000000	0.0000000	
0.000000	0.000000	0.000000
05:12:22 PM	0.0000000	0.0000000	0.0000000	
0.000000	0.000000	0.000000
05:12:22 PM	0.0000000	0.0000000	0.0000000	
0.000000	0.000000	0.000000
05:12:22 PM	0.0000000	0.0000000	0.0000000	
0.000000	0.000000	0.000000
05:12:22 PM	0.0000000	0.0000000	0.0000000	
0.000000	0.000000	0.000000
05:12:22 PM	0.0000000	0.0000000	0.0000000	
0.000000	0.000000	0.000000
05:12:22 PM	0.0000000	0.0000000	0.0000000	
0.000000	0.000000	0.000000
05:12:22 PM	0.0000000	0.0000000	0.0000000	
0.000000	0.000000	0.000000
05:12:22 PM	0.0000000	0.0000000	0.0000000	
0.000000	0.000000	0.000000
05:12:22 PM	0.0000000	0.0000000	0.0000000	
0.000000	0.000000	0.000000
05:12:22 PM	0.0000000	0.0000000	0.0000000	
0.000000	0.000000	0.000000
05:12:22 PM	0.0000000	0.0000000	0.0000000	
0.000000	0.000000	0.000000
05:12:22 PM	0.0000000	0.0000000	0.0000000	
0.000000	0.000000	0.000000
05:12:22 PM	0.0000000	0.0000000	0.0000000	
0.000000	0.000000	0.000000
05:12:22 PM	0.0000000	0.0000000	0.0000000	
0.000000	0.000000	0.000000
05:12:22 PM	0.0000000	0.0000000	0.0000000	
0.000000	0.000000	0.000000
05:12:22 PM	0.0000000	0.0000000	0.0000000	
0.000000	0.000000	0.000000
05:12:22 PM	0.0000000	0.0000000	0.0000000	
0.000000	0.000000	0.000000
05:12:22 PM	0.0000000	0.0000000	0.0000000	
0.000000	0.000000	0.000000
05:12:22 PM	0.0000000	0.0000000	0.0000000	
0.000000	0.000000	0.000000
05:12:22 PM	0.0000000	0.0000000	0.0000000	
0.000000	0.000000	0.000000
05:12:22 PM	0.0000000	0.0000000	0.0000000	
0.000000	0.000000	0.000000
05:12:22 PM	0.0000000	0.0000000	0.0000000	
0.000000	0.000000	0.000000
05:12:23 PM	0.0000000	0.0000000	0.0000000	
0.000000	0.000000	0.000000
05:12:23 PM	0.0000000	0.0000000	0.0000000	
0.000000	0.000000	0.000000
05:12:23 PM	0.0000000	0.0000000	0.0000000	
0.000000	0.000000	0.000000
05:12:23 PM	0.0000000	0.0000000	0.0000000	
0.000000	0.000000	0.000000
05:12:23 PM	0.0000000	0.0000000	0.0000000	
0.000000	0.000000	0.000000
05:12:23 PM	0.0000000	0.0000000	0.0000000	
0.000000	0.000000	0.000000
05:12:23 PM	0.0000000	0.0000000	0.0000000	
0.000000	0.000000	0.000000
05:12:23 PM	0.0000000	0.0000000	0.0000000	
0.000000	0.000000	0.000000
05:12:23 PM	0.0000000	0.0000000	0.0000000	
0.000000	0.000000	0.000000
05:12:23 PM	0.0000000	0.0000000	0.0000000	
0.000000	0.000000	0.000000
05:12:23 PM	0.0000000	0.0000000	0.0000000	
0.000000	0.000000	0.000000
05:12:23 PM	0.0000000	0.0000000	0.0000000	
0.000000	0.000000	0.000000
05:12:23 PM	0.0000000	0.0000000	0.0000000	
0.000000	0.000000	0.000000
05:12:23 PM	0.0000000	0.0000000	0.0000000	
0.000000	0.000000	0.000000
05:12:23 PM	0.0000000	0.0000000	0.0000000	
0.000000	0.000000	0.000000
05:12:23 PM	0.0000000	0.0000000	0.0000000	
0.000000	0.000000	0.000000
05:12:23 PM	0.0000000	0.0000000	0.0000000	
0.000000	0.000000	0.000000
05:12:23 PM	0.0000000	0.0000000	0.0000000	
0.000000	0.000000	0.000000
05:12:23 PM	0.0000000	0.0000000	0.0000000	
0.000000	0.000000	0.000000
05:12:23 PM	0.0000000	0.0000000	0.0000000	
0.000000	0.000000	0.000000
05:12:23 PM	0.0000000	0.0000000	0.0000000	
0.000000	0.000000	0.000000
05:12:25 PM	0.0000000	0.0000000	0.0000000	
0.000000	0.000000	0.000000
05:12:25 PM	0.0000000	0.0000000	0.0000000	
0.000000	0.000000	0.000000
05:12:25 PM	0.0000000	0.0000000	0.0000000	
0.000000	0.000000	0.000000
05:12:25 PM	0.0000000	0.0000000	0.0000000	
0.000000	0.000000	0.000000
05:12:25 PM	0.0000000	0.0000000	0.0000000	
0.000000	0.000000	0.000000
05:12:25 PM	0.0000000	0.0000000	0.0000000	
0.000000	0.000000	0.000000
05:12:25 PM	0.0000000	0.0000000	0.0000000	
0.000000	0.000000	0.000000
05:12:25 PM	0.0000000	0.0000000	0.0000000	
0.000000	0.000000	0.000000
05:12:25 PM	0.0000000	0.0000000	0.0000000	
0.000000	0.000000	0.000000
05:12:25 PM	0.0000000	0.0000000	0.0000000	
0.000000	0.000000	0.000000
05:12:25 PM	0.0000000	0.0000000	0.0000000	
0.000000	0.000000	0.000000
05:12:25 PM	0.0000000	0.0000000	0.0000000	
0.000000	0.000000	0.000000
05:12:25 PM	0.0000000	0.0000000	0.0000000	
0.000000	0.000000	0.000000
05:12:25 PM	0.0000000	0.0000000	0.0000000	
0.000000	0.000000	0.000000
05:12:25 PM	0.0000000	0.0000000	0.0000000	
0.000000	0.000000	0.000000
05:12:25 PM	0.0000000	0.0000000	0.0000000	
0.000000	0.000000	0.000000
05:12:25 PM	0.0000000	0.0000000	0.0000000	
0.000000	0.000000	0.000000
05:12:25 PM	0.0000000	0.0000000	0.0000000	
0.000000	0.000000	0.000000
05:12:25 PM	0.0000000	0.0000000	0.0000000	
0.000000	0.000000	0.000000
05:12:25 PM	0.0000000	0.0000000	0.0000000	
0.000000	0.000000	0.000000
05:12:25 PM	0.0000000	0.0000000	0.0000000	
0.000000	0.000000	0.000000
05:12:25 PM	0.0000000	0.0000000	0.0000000	
0.000000	0.000000	0.000000
05:12:25 PM	0.0000000	0.0000000	0.0000000	
0.000000	0.000000	0.000000
05:12:25 PM	0.0000000	0.0000000	0.0000000	
0.000000	0.000000	0.000000
05:12:25 PM	0.0000000	0.0000000	0.0000000	
0.000000	0.000000	0.000000
05:12:25 PM	0.0000000	0.0000000	0.0000000	
0.000000	0.000000	0.000000
05:12:25 PM	0.0000000	0.0000000	0.0000000	
0.000000	0.000000	0.000000
05:12:25 PM	0.0000000	0.0000000	0.0000000	
0.000000	0.000000	0.000000
05:12:25 PM	0.0000000	0.0000000	0.0000000	
0.000000	0.000000	0.000000
05:12:25 PM	0.0000000	0.0000000	0.0000000	
0.000000	0.000000	0.000000
05:12:25 PM	0.0000000	0.0000000	0.0000000	
0.000000	0.000000	0.000000
05:12:25 PM	0.0000000	0.0000000	0.0000000	
0.000000	0.000000	0.000000
05:12:25 PM	0.0000000	0.0000000	0.0000000	
0.000000	0.000000	0.000000
05:12:25 PM	0.0000000	0.0000000	0.0000000	
0.000000	0.000000	0.000000
05:12:25 PM	0.0000000	0.0000000	0.0000000	
0.000000	0.000000	0.000000
05:12:25 PM	0.0000000	0.0000000	0.0000000	
0.000000	0.000000	0.000000
05:12:26 PM	0.0000000	0.0000000	0.0000000	
0.000000	0.000000	0.000000
05:12:26 PM	0.0000000	0.0000000	0.0000000	
0.000000	0.000000	0.000000
05:12:26 PM	0.0000000	0.0000000	0.0000000	
0.000000	0.000000	0.000000
05:12:26 PM	0.0000000	0.0000000	0.0000000	
0.000000	0.000000	0.000000
05:12:26 PM	0.0000000	0.0000000	0.0000000	
0.000000	0.000000	0.000000
05:12:26 PM	0.0000000	0.0000000	0.0000000	
0.000000	0.000000	0.000000
05:12:26 PM	0.0000000	0.0000000	0.0000000	
0.000000	0.000000	0.000000
05:12:26 PM	0.0000000	0.0000000	0.0000000	
0.000000	0.000000	0.000000
05:12:26 PM	0.0000000	0.0000000	0.0000000	
0.000000	0.000000	0.000000
05:12:26 PM	0.0000000	0.0000000	0.0000000	
0.000000	0.000000	0.000000
05:12:26 PM	0.0000000	0.0000000	0.0000000	
0.000000	0.000000	0.000000
05:12:26 PM	0.0000000	0.0000000	0.0000000	
0.000000	0.000000	0.000000
05:12:26 PM	0.0000000	0.0000000	0.0000000	
0.000000	0.000000	0.000000
05:12:26 PM	0.0000000	0.0000000	0.0000000	
0.000000	0.000000	0.000000
05:12:26 PM	0.0000000	0.0000000	0.0000000	
0.000000	0.000000	0.000000
05:12:26 PM	0.0000000	0.0000000	0.0000000	
0.000000	0.000000	0.000000
05:12:26 PM	0.0000000	0.0000000	0.0000000	
0.000000	0.000000	0.000000
05:12:26 PM	0.0000000	0.0000000	0.0000000	
0.000000	0.000000	0.000000
05:12:26 PM	0.0000000	0.0000000	0.0000000	
0.000000	0.000000	0.000000
05:12:26 PM	0.0000000	0.0000000	0.0000000	
0.000000	0.000000	0.000000
05:12:26 PM	0.0000000	0.0000000	0.0000000	
0.000000	0.000000	0.000000
05:12:26 PM	0.0000000	0.0000000	0.0000000	
0.000000	0.000000	0.000000
05:12:26 PM	0.0000000	0.0000000	0.0000000	
0.000000	0.000000	0.000000
05:12:26 PM	0.0000000	0.0000000	0.0000000	
0.000000	0.000000	0.000000
05:12:26 PM	0.0000000	0.0000000	0.0000000	
0.000000	0.000000	0.000000
05:12:26 PM	0.0000000	0.0000000	0.0000000	
0.000000	0.000000	0.000000
05:12:26 PM	0.0000000	0.0000000	0.0000000	
0.000000	0.000000	0.000000
05:12:26 PM	0.0000000	0.0000000	0.0000000	
0.000000	0.000000	0.000000
05:12:26 PM	0.0000000	0.0000000	0.0000000	
0.000000	0.000000	0.000000
05:12:26 PM	0.0000000	0.0000000	0.0000000	
0.000000	0.000000	0.000000
05:12:26 PM	0.0000000	0.0000000	0.0000000	
0.000000	0.000000	0.000000
05:12:26 PM	0.0000000	0.0000000	0.0000000	
0.000000	0.000000	0.000000
05:12:26 PM	0.0000000	0.0000000	0.0000000	
0.000000	0.000000	0.000000
05:12:26 PM	0.0000000	0.0000000	0.0000000	
0.000000	0.000000	0.000000
05:12:26 PM	0.0000000	0.0000000	0.0000000	
0.000000	0.000000	0.000000
05:12:26 PM	0.0000000	0.0000000	0.0000000	
0.000000	0.000000	0.000000
05:12:26 PM	0.0000000	0.0000000	0.0000000	
0.000000	0.000000	0.000000
05:12:26 PM	0.0000000	0.0000000	0.0000000	
0.000000	0.000000	0.000000
05:12:27 PM	0.0000000	0.0000000	0.0000000	
0.000000	0.000000	0.000000
05:12:27 PM	0.0000000	0.0000000	0.0000000	
0.000000	0.000000	0.000000
05:12:27 PM	0.0000000	0.0000000	0.0000000	
0.000000	0.000000	0.000000
05:12:27 PM	0.0000000	0.0000000	0.0000000	
0.000000	0.000000	0.000000
05:12:27 PM	0.0000000	0.0000000	0.0000000	
0.000000	0.000000	0.000000
05:12:27 PM	0.0000000	0.0000000	0.0000000	
0.000000	0.000000	0.000000
05:12:27 PM	0.0000000	0.0000000	0.0000000	
0.000000	0.000000	0.000000
05:12:27 PM	0.0000000	0.0000000	0.0000000	
0.000000	0.000000	0.000000
05:12:27 PM	0.0000000	0.0000000	0.0000000	
0.000000	0.000000	0.000000
05:12:27 PM	0.0000000	0.0000000	0.0000000	
0.000000	0.000000	0.000000
05:12:27 PM	0.0000000	0.0000000	0.0000000	
0.000000	0.000000	0.000000
05:12:27 PM	0.0000000	0.0000000	0.0000000	
0.000000	0.000000	0.000000
05:12:27 PM	0.0000000	0.0000000	0.0000000	
0.000000	0.000000	0.000000
05:12:27 PM	0.0000000	0.0000000	0.0000000	
0.000000	0.000000	0.000000
05:12:27 PM	0.0000000	0.0000000	0.0000000	
0.000000	0.000000	0.000000
05:12:27 PM	0.0000000	0.0000000	0.0000000	
0.000000	0.000000	0.000000
05:12:27 PM	0.0000000	0.0000000	0.0000000	
0.000000	0.000000	0.000000
05:12:27 PM	0.0000000	0.0000000	0.0000000	
0.000000	0.000000	0.000000
05:12:27 PM	0.0000000	0.0000000	0.0000000	
0.000000	0.000000	0.000000
05:12:27 PM	0.0000000	0.0000000	0.0000000	
0.000000	0.000000	0.000000
05:12:27 PM	0.0000000	0.0000000	0.0000000	
0.000000	0.000000	0.000000
05:12:27 PM	0.0000000	0.0000000	0.0000000	
0.000000	0.000000	0.000000
05:12:27 PM	0.0000000	0.0000000	0.0000000	
0.000000	0.000000	0.000000
05:12:27 PM	0.0000000	0.0000000	0.0000000	
0.000000	0.000000	0.000000
05:12:27 PM	0.0000000	0.0000000	0.0000000	
0.000000	0.000000	0.000000
05:12:27 PM	0.0000000	0.0000000	0.0000000	
